Library/Bee/artifacts/mvdfrm/UnityEditor.TestRunner.ref.dll_2594DFF003AE8269.mvfrm
Library/Bee/artifacts/mvdfrm/UnityEditor.UI.ref.dll_452FB8EBD860BCAB.mvfrm
Library/Bee/artifacts/mvdfrm/UnityEngine.TestRunner.ref.dll_F1B32A9E2F71E054.mvfrm
Library/Bee/artifacts/mvdfrm/UnityEngine.UI.ref.dll_01958F46DE82E516.mvfrm
Library/Bee/artifacts/mvdfrm/UnityEditor.Graphs.dll_167186945AE244FC.mvfrm
Library/Bee/artifacts/mvdfrm/UnityEditor.CoreModule.dll_A54298504CA104CA.mvfrm
Library/Bee/artifacts/mvdfrm/UnityEditor.DeviceSimulatorModule.dll_AF1FDEE7E5AB2917.mvfrm
Library/Bee/artifacts/mvdfrm/UnityEditor.DiagnosticsModule.dll_78CE454C1D64BDA5.mvfrm
Library/Bee/artifacts/mvdfrm/UnityEditor.GraphViewModule.dll_19CB0F5A373B1EDC.mvfrm
Library/Bee/artifacts/mvdfrm/UnityEditor.PackageManagerUIModule.dll_2943ACA3E811B9A6.mvfrm
Library/Bee/artifacts/mvdfrm/UnityEditor.QuickSearchModule.dll_03DDC659763BB9FE.mvfrm
Library/Bee/artifacts/mvdfrm/UnityEditor.SceneTemplateModule.dll_AB38624FBF55443F.mvfrm
Library/Bee/artifacts/mvdfrm/UnityEditor.TextCoreFontEngineModule.dll_1596BE508C65AB08.mvfrm
Library/Bee/artifacts/mvdfrm/UnityEditor.TextCoreTextEngineModule.dll_5D7EF4C21BE96426.mvfrm
Library/Bee/artifacts/mvdfrm/UnityEditor.UIBuilderModule.dll_6E53BC76A9F39810.mvfrm
Library/Bee/artifacts/mvdfrm/UnityEditor.UIElementsModule.dll_D227AF6DBFC763C6.mvfrm
Library/Bee/artifacts/mvdfrm/UnityEditor.UIElementsSamplesModule.dll_A661BB5B04F05C07.mvfrm
Library/Bee/artifacts/mvdfrm/UnityEditor.UIServiceModule.dll_A745CDD9932AE82A.mvfrm
Library/Bee/artifacts/mvdfrm/UnityEditor.UnityConnectModule.dll_B909348FE0AE1880.mvfrm
Library/Bee/artifacts/mvdfrm/UnityEditor.dll_A73E6F49590ECAAB.mvfrm
Library/Bee/artifacts/mvdfrm/UnityEngine.AIModule.dll_6A0291F445271DDE.mvfrm
Library/Bee/artifacts/mvdfrm/UnityEngine.ARModule.dll_237556F7A2447CA7.mvfrm
Library/Bee/artifacts/mvdfrm/UnityEngine.AccessibilityModule.dll_DDDDCDE6BFCB6BDC.mvfrm
Library/Bee/artifacts/mvdfrm/UnityEngine.AndroidJNIModule.dll_5070984108E6D29C.mvfrm
Library/Bee/artifacts/mvdfrm/UnityEngine.AnimationModule.dll_E8508B831197F382.mvfrm
Library/Bee/artifacts/mvdfrm/UnityEngine.AssetBundleModule.dll_47C6F94AD8A26EF0.mvfrm
Library/Bee/artifacts/mvdfrm/UnityEngine.AudioModule.dll_79CD012E58ADA3F4.mvfrm
Library/Bee/artifacts/mvdfrm/UnityEngine.ClothModule.dll_E0B55E2932CA82D8.mvfrm
Library/Bee/artifacts/mvdfrm/UnityEngine.ClusterInputModule.dll_38A5A9A59235EB46.mvfrm
Library/Bee/artifacts/mvdfrm/UnityEngine.ClusterRendererModule.dll_B4CCA1595566369B.mvfrm
Library/Bee/artifacts/mvdfrm/UnityEngine.CoreModule.dll_C8636BA2F4A66FF5.mvfrm
Library/Bee/artifacts/mvdfrm/UnityEngine.CrashReportingModule.dll_B0E6F36C74E20EAD.mvfrm
Library/Bee/artifacts/mvdfrm/UnityEngine.DSPGraphModule.dll_60A6D54E84096473.mvfrm
Library/Bee/artifacts/mvdfrm/UnityEngine.DirectorModule.dll_5B5573E511A89352.mvfrm
Library/Bee/artifacts/mvdfrm/UnityEngine.GIModule.dll_023EDB01E0D605F8.mvfrm
Library/Bee/artifacts/mvdfrm/UnityEngine.GameCenterModule.dll_7ABDE25BCF27C38D.mvfrm
Library/Bee/artifacts/mvdfrm/UnityEngine.GridModule.dll_A5D487910CFB05EC.mvfrm
Library/Bee/artifacts/mvdfrm/UnityEngine.HotReloadModule.dll_69994988ECCB0F04.mvfrm
Library/Bee/artifacts/mvdfrm/UnityEngine.IMGUIModule.dll_B22CA0951EDF37D5.mvfrm
Library/Bee/artifacts/mvdfrm/UnityEngine.ImageConversionModule.dll_20BE9F09D78AEE8F.mvfrm
Library/Bee/artifacts/mvdfrm/UnityEngine.InputLegacyModule.dll_D90C1469709424E1.mvfrm
Library/Bee/artifacts/mvdfrm/UnityEngine.InputModule.dll_E042C8DECEE5C898.mvfrm
Library/Bee/artifacts/mvdfrm/UnityEngine.JSONSerializeModule.dll_3DF55722BF06CC66.mvfrm
Library/Bee/artifacts/mvdfrm/UnityEngine.LocalizationModule.dll_76F273F829B1DE3F.mvfrm
Library/Bee/artifacts/mvdfrm/UnityEngine.NVIDIAModule.dll_3BE311C9BF6B6501.mvfrm
Library/Bee/artifacts/mvdfrm/UnityEngine.ParticleSystemModule.dll_03F93CB8E2F39A3B.mvfrm
Library/Bee/artifacts/mvdfrm/UnityEngine.PerformanceReportingModule.dll_99DBC62CA81139B4.mvfrm
Library/Bee/artifacts/mvdfrm/UnityEngine.Physics2DModule.dll_34F67B73B294EB17.mvfrm
Library/Bee/artifacts/mvdfrm/UnityEngine.PhysicsModule.dll_38D36CC8D3601545.mvfrm
Library/Bee/artifacts/mvdfrm/UnityEngine.ProfilerModule.dll_8D9BAD1BAB021A5F.mvfrm
Library/Bee/artifacts/mvdfrm/UnityEngine.RuntimeInitializeOnLoadManagerInitializerModule.dll_47EEE5B4CCE709E0.mvfrm
Library/Bee/artifacts/mvdfrm/UnityEngine.ScreenCaptureModule.dll_57DD04A7D372F8C8.mvfrm
Library/Bee/artifacts/mvdfrm/UnityEngine.SharedInternalsModule.dll_A4CFDDDF4EB8E9DF.mvfrm
Library/Bee/artifacts/mvdfrm/UnityEngine.SpriteMaskModule.dll_63EA54EBF0975907.mvfrm
Library/Bee/artifacts/mvdfrm/UnityEngine.SpriteShapeModule.dll_612826A58E44A6FA.mvfrm
Library/Bee/artifacts/mvdfrm/UnityEngine.StreamingModule.dll_9CE578D3611FAAC0.mvfrm
Library/Bee/artifacts/mvdfrm/UnityEngine.SubstanceModule.dll_79908D1CAC72A8CE.mvfrm
Library/Bee/artifacts/mvdfrm/UnityEngine.SubsystemsModule.dll_CE97BB4DBEDF411A.mvfrm
Library/Bee/artifacts/mvdfrm/UnityEngine.TLSModule.dll_59AE4DAA26000CD9.mvfrm
Library/Bee/artifacts/mvdfrm/UnityEngine.TerrainModule.dll_5319E837A91E5E33.mvfrm
Library/Bee/artifacts/mvdfrm/UnityEngine.TerrainPhysicsModule.dll_0473E58BFC3694C8.mvfrm
Library/Bee/artifacts/mvdfrm/UnityEngine.TextCoreFontEngineModule.dll_93F639A39F6369D3.mvfrm
Library/Bee/artifacts/mvdfrm/UnityEngine.TextCoreTextEngineModule.dll_DBDE70152EE722F1.mvfrm
Library/Bee/artifacts/mvdfrm/UnityEngine.TextRenderingModule.dll_811C76B28AAA78BD.mvfrm
Library/Bee/artifacts/mvdfrm/UnityEngine.TilemapModule.dll_F2164FB8C0DB3F3C.mvfrm
Library/Bee/artifacts/mvdfrm/UnityEngine.UIElementsModule.dll_D2D61CB5C20B7D11.mvfrm
Library/Bee/artifacts/mvdfrm/UnityEngine.UIElementsNativeModule.dll_73BD6139598A29C8.mvfrm
Library/Bee/artifacts/mvdfrm/UnityEngine.UIModule.dll_65763021A16E238A.mvfrm
Library/Bee/artifacts/mvdfrm/UnityEngine.UNETModule.dll_5B09B38C41B5656E.mvfrm
Library/Bee/artifacts/mvdfrm/UnityEngine.UmbraModule.dll_F4A1AD46E5D44F67.mvfrm
Library/Bee/artifacts/mvdfrm/UnityEngine.UnityAnalyticsCommonModule.dll_351A8370C1F9D812.mvfrm
Library/Bee/artifacts/mvdfrm/UnityEngine.UnityAnalyticsModule.dll_2398AD828F1AEC37.mvfrm
Library/Bee/artifacts/mvdfrm/UnityEngine.UnityConnectModule.dll_A668B89EDB36192B.mvfrm
Library/Bee/artifacts/mvdfrm/UnityEngine.UnityCurlModule.dll_1B6D2CB481ABE56F.mvfrm
Library/Bee/artifacts/mvdfrm/UnityEngine.UnityTestProtocolModule.dll_6224714D5EEBB15D.mvfrm
Library/Bee/artifacts/mvdfrm/UnityEngine.UnityWebRequestAssetBundleModule.dll_7358A3D242DEE048.mvfrm
Library/Bee/artifacts/mvdfrm/UnityEngine.UnityWebRequestAudioModule.dll_11D81A0B2E7C044C.mvfrm
Library/Bee/artifacts/mvdfrm/UnityEngine.UnityWebRequestModule.dll_325DA6B3E27F890E.mvfrm
Library/Bee/artifacts/mvdfrm/UnityEngine.UnityWebRequestTextureModule.dll_EEB4A4A18E975BA1.mvfrm
Library/Bee/artifacts/mvdfrm/UnityEngine.UnityWebRequestWWWModule.dll_A6A0B5711EA6DF5D.mvfrm
Library/Bee/artifacts/mvdfrm/UnityEngine.VFXModule.dll_DA8CE618FC6D7646.mvfrm
Library/Bee/artifacts/mvdfrm/UnityEngine.VRModule.dll_B84856A74328A902.mvfrm
Library/Bee/artifacts/mvdfrm/UnityEngine.VehiclesModule.dll_D3186D648BD262ED.mvfrm
Library/Bee/artifacts/mvdfrm/UnityEngine.VideoModule.dll_9ED685991B3FBF99.mvfrm
Library/Bee/artifacts/mvdfrm/UnityEngine.VirtualTexturingModule.dll_984A15A83238AA53.mvfrm
Library/Bee/artifacts/mvdfrm/UnityEngine.WindModule.dll_3EB246CB85DCEE5E.mvfrm
Library/Bee/artifacts/mvdfrm/UnityEngine.XRModule.dll_EB0719ABCC62F660.mvfrm
Library/Bee/artifacts/mvdfrm/UnityEngine.dll_D9E2B621B7825790.mvfrm
Library/Bee/artifacts/mvdfrm/UnityEditor.LinuxStandalone.Extensions.dll_9734706B5F06AF26.mvfrm
Library/Bee/artifacts/mvdfrm/UnityEditor.WebGL.Extensions.dll_F09E6420DD083F86.mvfrm